{
  "title": "Infront config service API",
  "dateLibrary": "java8",
  "groupId": "dev.infrontfinance.hackathon",
  "artifactId": "config-service",
  "basePackage": "dev.infrontfinance.hackathon.iodevices.cfgservice",
  "apiPackage": "dev.infrontfinance.hackathon.iodevices.cfgservice.api",
  "modelPackage": "dev.infrontfinance.hackathon.iodevices.cfgservice.model",
  "configPackage": "dev.infrontfinance.hackathon.iodevices.cfgservice.config",
  "async": false,
  "useOptional": false,
  "useBeanValidation": true,
  "interfaceOnly": true,
  "library": "spring-cloud"
}
